module gitlab.com/go-projects1372806/Go-workout-tracker

go 1.21.6

require (
	fyne.io/fyne v1.4.3 // indirect
	fyne.io/fyne/v2 v2.4.4 // indirect
	fyne.io/systray v1.10.1-0.20231115130155-104f5ef7839e // indirect
	github.com/BurntSushi/toml v1.3.2 // indirect
	github.com/akavel/rsrc v0.10.2 // indirect
	github.com/cpuguy83/go-md2man/v2 v2.0.1 // indirect
	github.com/davecgh/go-spew v1.1.1 // indirect
	github.com/fogleman/gg v1.3.0 // indirect
	github.com/fredbi/uri v1.0.0 // indirect
	github.com/fsnotify/fsnotify v1.6.0 // indirect
	github.com/fyne-io/gl-js v0.0.0-20220119005834-d2da28d9ccfe // indirect
	github.com/fyne-io/glfw-js v0.0.0-20220120001248-ee7290d23504 // indirect
	github.com/fyne-io/image v0.0.0-20220602074514-4956b0afb3d2 // indirect
	github.com/go-gl/gl v0.0.0-20211210172815-726fda9656d6 // indirect
	github.com/go-gl/glfw/v3.3/glfw v0.0.0-20221017161538-93cebf72946b // indirect
	github.com/go-ole/go-ole v1.2.6 // indirect
	github.com/go-text/render v0.0.0-20230619120952-35bccb6164b8 // indirect
	github.com/go-text/typesetting v0.1.0 // indirect
	github.com/godbus/dbus/v5 v5.1.0 // indirect
	github.com/golang/freetype v0.0.0-20170609003504-e2365dfdc4a0 // indirect
	github.com/gopherjs/gopherjs v1.17.2 // indirect
	github.com/jackmordaunt/icns/v2 v2.2.6 // indirect
	github.com/josephspurrier/goversioninfo v1.4.0 // indirect
	github.com/jsummers/gobmp v0.0.0-20151104160322-e2ba15ffa76e // indirect
	github.com/lucor/goinfo v0.9.0 // indirect
	github.com/lxn/walk v0.0.0-20210112085537-c389da54e794 // indirect
	github.com/lxn/win v0.0.0-20210218163916-a377121e959e // indirect
	github.com/mcuadros/go-version v0.0.0-20190830083331-035f6764e8d2 // indirect
	github.com/nfnt/resize v0.0.0-20180221191011-83c6a9932646 // indirect
	github.com/pmezard/go-difflib v1.0.0 // indirect
	github.com/russross/blackfriday/v2 v2.1.0 // indirect
	github.com/sdassow/fyne-datepicker v0.0.0-20231109153751-6b0e13b1325d // indirect
	github.com/srwiley/oksvg v0.0.0-20221011165216-be6e8873101c // indirect
	github.com/srwiley/rasterx v0.0.0-20220730225603-2ab79fcdd4ef // indirect
	github.com/stretchr/testify v1.8.4 // indirect
	github.com/tevino/abool v1.2.0 // indirect
	github.com/urfave/cli/v2 v2.4.0 // indirect
	github.com/yuin/goldmark v1.5.5 // indirect
	golang.org/x/image v0.11.0 // indirect
	golang.org/x/mobile v0.0.0-20230531173138-3c911d8e3eda // indirect
	golang.org/x/mod v0.12.0 // indirect
	golang.org/x/net v0.17.0 // indirect
	golang.org/x/sys v0.13.0 // indirect
	golang.org/x/text v0.13.0 // indirect
	golang.org/x/tools v0.12.0 // indirect
	gopkg.in/Knetic/govaluate.v3 v3.0.0 // indirect
	gopkg.in/yaml.v3 v3.0.1 // indirect
	honnef.co/go/js/dom v0.0.0-20210725211120-f030747120f2 // indirect
)
